Rchemist - dplyr 심화: across()
…
      Published

        February 2, 2023

데이터 분석을 수행할 때, 여러 열에 대해 동일한 작업을 해주는 경우가 종종 있습니다. 그러나 동일한 코드를 복사해서 붙여넣기 하는 것은 굉장히 번거로운 일이고, 때로는 실수의 원인이 되기도 합니다.

library(dplyr)
storms |> 
  group_by(name, month) |> 
  summarise(mean_wind = mean(wind, na.rm=T),
            mean_pressure = mean(pressure,na.rm=T),
            mean_tropical = mean(tropicalstorm_force_diameter, na.rm=T),
            mean_hurricane_force = mean(hurricane_force_diameter, na.rm=T))

# A tibble: 396 × 6
# Groups:   name [214]
   name     month mean_wind mean_pressure mean_tropical mean_hurricane_force
   <chr>    <dbl>     <dbl>         <dbl>         <dbl>                <dbl>
 1 AL011993     5      25           1002.           NaN                  NaN
 2 AL011993     6      28.3          999.           NaN                  NaN
 3 AL012000     6      25           1009.           NaN                  NaN
 4 AL021992     6      29           1007.           NaN                  NaN
 5 AL021994     7      24.2         1016.           NaN                  NaN
 6 AL021999     7      28.8         1005.           NaN                  NaN
 7 AL022000     6      29.2         1009.           NaN                  NaN
 8 AL022001     7      25           1011            NaN                  NaN
 9 AL022003     6      30           1009.           NaN                  NaN
10 AL022006     7      38           1002.            48                    0
# … with 386 more rows

이번 글에서는 여러 개의 열에 대해 동일한 작업을 수행할 수 있는 across() 에 대해 살펴보도록 하겠습니다.

across() 를 사용할 경우, 위의 코드는 다음과 같이 입력할 수 있습니다.

storms |> 
  group_by(name,month) |> 
  summarise(across(wind:hurricane_force_diameter, mean, na.rm=T))

# A tibble: 396 × 6
# Groups:   name [214]
   name     month  wind pressure tropicalstorm_force_diameter hurricane_force_…¹
   <chr>    <dbl> <dbl>    <dbl>                        <dbl>              <dbl>
 1 AL011993     5  25      1002.                          NaN                NaN
 2 AL011993     6  28.3     999.                          NaN                NaN
 3 AL012000     6  25      1009.                          NaN                NaN
 4 AL021992     6  29      1007.                          NaN                NaN
 5 AL021994     7  24.2    1016.                          NaN                NaN
 6 AL021999     7  28.8    1005.                          NaN                NaN
 7 AL022000     6  29.2    1009.                          NaN                NaN
 8 AL022001     7  25      1011                           NaN                NaN
 9 AL022003     6  30      1009.                          NaN                NaN
10 AL022006     7  38      1002.                           48                  0
# … with 386 more rows, and abbreviated variable name ¹​hurricane_force_diameter
…
여러 함수 적용하기

across()를 이용해 여러 열에 두 가지 이상의 함수를 적용할 수 있습니다.

min_max <- list(
  min = ~min(.x, na.rm=T),
  max = ~max(.x ,na.rm=T)
)

starwars |> 
  group_by(species) |> 
  summarise(across(is.numeric,min_max))

# A tibble: 38 × 7
   species   height_min height_max mass_min mass_max birth_year_min birth_year…¹
   <chr>          <int>      <int>    <dbl>    <dbl>          <dbl>        <dbl>
 1 Aleena            79         79       15       15            Inf         -Inf
 2 Besalisk         198        198      102      102            Inf         -Inf
 3 Cerean           198        198       82       82             92           92
 4 Chagrian         196        196      Inf     -Inf            Inf         -Inf
 5 Clawdite         168        168       55       55            Inf         -Inf
 6 Droid             96        200       32      140             15          112
 7 Dug              112        112       40       40            Inf         -Inf
 8 Ewok              88         88       20       20              8            8
 9 Geonosian        183        183       80       80            Inf         -Inf
10 Gungan           196        224       66       82             52           52
# … with 28 more rows, and abbreviated variable name ¹​birth_year_max
…
2. distinct() , count()

count(), distinct() 와 같은 함수는 summarise() 를 생략할 수 있습니다.

distinct(): unique한 값 찾기

starwars |> distinct(across(contains('color')))

# A tibble: 67 × 3
   hair_color    skin_color  eye_color
   <chr>         <chr>       <chr>    
 1 blond         fair        blue     
 2 <NA>          gold        yellow   
 3 <NA>          white, blue red      
 4 none          white       yellow   
 5 brown         light       brown    
 6 brown, grey   light       blue     
 7 brown         light       blue     
 8 <NA>          white, red  red      
 9 black         light       brown    
10 auburn, white fair        blue-gray
# … with 57 more rows

count(): 수를 셀 때 사용하는 함수입니다. across()와 함께 사용할 경우, 조건에 해당하는 열들의 조합별로 수를 셉니다.

starwars |> count(across(contains('color')), sort = T)

# A tibble: 67 × 4
   hair_color skin_color eye_color     n
   <chr>      <chr>      <chr>     <int>
 1 brown      light      brown         6
 2 brown      fair       blue          4
 3 none       grey       black         4
 4 black      dark       brown         3
 5 blond      fair       blue          3
 6 black      fair       brown         2
 7 black      tan        brown         2
 8 black      yellow     blue          2
 9 brown      fair       brown         2
10 none       white      yellow        2
# … with 57 more rows

filter()

filter()와 across()는 바로 사용할 수 없습니다.

if_any() : 하나만 함수 부분에 해당되더라도 선택합니다.

starwars |> 
  filter(if_any(everything(),~!is.na(.x)))

# A tibble: 87 × 14
   name        height  mass hair_…¹ skin_…² eye_c…³ birth…⁴ sex   gender homew…⁵
   <chr>        <int> <dbl> <chr>   <chr>   <chr>     <dbl> <chr> <chr>  <chr>  
 1 Luke Skywa…    172    77 blond   fair    blue       19   male  mascu… Tatooi…
 2 C-3PO          167    75 <NA>    gold    yellow    112   none  mascu… Tatooi…
 3 R2-D2           96    32 <NA>    white,… red        33   none  mascu… Naboo  
 4 Darth Vader    202   136 none    white   yellow     41.9 male  mascu… Tatooi…
 5 Leia Organa    150    49 brown   light   brown      19   fema… femin… Aldera…
 6 Owen Lars      178   120 brown,… light   blue       52   male  mascu… Tatooi…
 7 Beru White…    165    75 brown   light   blue       47   fema… femin… Tatooi…
 8 R5-D4           97    32 <NA>    white,… red        NA   none  mascu… Tatooi…
 9 Biggs Dark…    183    84 black   light   brown      24   male  mascu… Tatooi…
10 Obi-Wan Ke…    182    77 auburn… fair    blue-g…    57   male  mascu… Stewjon
# … with 77 more rows, 4 more variables: species <chr>, films <list>,
#   vehicles <list>, starships <list>, and abbreviated variable names
#   ¹​hair_color, ²​skin_color, ³​eye_color, ⁴​birth_year, ⁵​homeworld

if_all() : 열의 모든 값들이 함수 부분을 충족해야 선택합니다.

starwars |> 
  filter(if_all(everything(),~!is.na(.x)))

# A tibble: 29 × 14
   name        height  mass hair_…¹ skin_…² eye_c…³ birth…⁴ sex   gender homew…⁵
   <chr>        <int> <dbl> <chr>   <chr>   <chr>     <dbl> <chr> <chr>  <chr>  
 1 Luke Skywa…    172    77 blond   fair    blue       19   male  mascu… Tatooi…
 2 Darth Vader    202   136 none    white   yellow     41.9 male  mascu… Tatooi…
 3 Leia Organa    150    49 brown   light   brown      19   fema… femin… Aldera…
 4 Owen Lars      178   120 brown,… light   blue       52   male  mascu… Tatooi…
 5 Beru White…    165    75 brown   light   blue       47   fema… femin… Tatooi…
 6 Biggs Dark…    183    84 black   light   brown      24   male  mascu… Tatooi…
 7 Obi-Wan Ke…    182    77 auburn… fair    blue-g…    57   male  mascu… Stewjon
 8 Anakin Sky…    188    84 blond   fair    blue       41.9 male  mascu… Tatooi…
 9 Chewbacca      228   112 brown   unknown blue      200   male  mascu… Kashyy…
10 Han Solo       180    80 brown   fair    brown      29   male  mascu… Corell…
# … with 19 more rows, 4 more variables: species <chr>, films <list>,
#   vehicles <list>, starships <list>, and abbreviated variable names
#   ¹​hair_color, ²​skin_color, ³​eye_color, ⁴​birth_year, ⁵​homeworld
…
_if(), _at(), _all()은 dplyr 이전 버전에서 쓰이던 함수들로, across() 처럼 여러 열에 대해 동시에 작업을 하기 위해 사용하는 함수들입니다.

across() 가 더 좋은 이유는 다음과 같습니다.

여러 열들에 대해 특정 함수를 사용하여 요약할 수 있습니다.

각 함수별로 _if(), _at(), _all() 이 존재했습니다. across()는 이런 함수들의 기능을 아우르기 때문에, 사용해야 할 함수의 숫자를 줄여줍니다.

across()와 _if(), _at(), _all() 을 대응시켜보면 다음과 같습니다. 만약 mutate()를 통해 column을 변화시키고자 할 경우,

_if()

starwars |> mutate_if(is.numeric, mean, na.rm=T) 

# A tibble: 87 × 14
   name        height  mass hair_…¹ skin_…² eye_c…³ birth…⁴ sex   gender homew…⁵
   <chr>        <dbl> <dbl> <chr>   <chr>   <chr>     <dbl> <chr> <chr>  <chr>  
 1 Luke Skywa…   174.  97.3 blond   fair    blue       87.6 male  mascu… Tatooi…
 2 C-3PO         174.  97.3 <NA>    gold    yellow     87.6 none  mascu… Tatooi…
 3 R2-D2         174.  97.3 <NA>    white,… red        87.6 none  mascu… Naboo  
 4 Darth Vader   174.  97.3 none    white   yellow     87.6 male  mascu… Tatooi…
 5 Leia Organa   174.  97.3 brown   light   brown      87.6 fema… femin… Aldera…
 6 Owen Lars     174.  97.3 brown,… light   blue       87.6 male  mascu… Tatooi…
 7 Beru White…   174.  97.3 brown   light   blue       87.6 fema… femin… Tatooi…
 8 R5-D4         174.  97.3 <NA>    white,… red        87.6 none  mascu… Tatooi…
 9 Biggs Dark…   174.  97.3 black   light   brown      87.6 male  mascu… Tatooi…
10 Obi-Wan Ke…   174.  97.3 auburn… fair    blue-g…    87.6 male  mascu… Stewjon
# … with 77 more rows, 4 more variables: species <chr>, films <list>,
#   vehicles <list>, starships <list>, and abbreviated variable names
#   ¹​hair_color, ²​skin_color, ³​eye_color, ⁴​birth_year, ⁵​homeworld

starwars |> mutate(across(is.numeric,mean, na.rm=T))

# A tibble: 87 × 14
   name        height  mass hair_…¹ skin_…² eye_c…³ birth…⁴ sex   gender homew…⁵
   <chr>        <dbl> <dbl> <chr>   <chr>   <chr>     <dbl> <chr> <chr>  <chr>  
 1 Luke Skywa…   174.  97.3 blond   fair    blue       87.6 male  mascu… Tatooi…
 2 C-3PO         174.  97.3 <NA>    gold    yellow     87.6 none  mascu… Tatooi…
 3 R2-D2         174.  97.3 <NA>    white,… red        87.6 none  mascu… Naboo  
 4 Darth Vader   174.  97.3 none    white   yellow     87.6 male  mascu… Tatooi…
 5 Leia Organa   174.  97.3 brown   light   brown      87.6 fema… femin… Aldera…
 6 Owen Lars     174.  97.3 brown,… light   blue       87.6 male  mascu… Tatooi…
 7 Beru White…   174.  97.3 brown   light   blue       87.6 fema… femin… Tatooi…
 8 R5-D4         174.  97.3 <NA>    white,… red        87.6 none  mascu… Tatooi…
 9 Biggs Dark…   174.  97.3 black   light   brown      87.6 male  mascu… Tatooi…
10 Obi-Wan Ke…   174.  97.3 auburn… fair    blue-g…    87.6 male  mascu… Stewjon
# … with 77 more rows, 4 more variables: species <chr>, films <list>,
#   vehicles <list>, starships <list>, and abbreviated variable names
#   ¹​hair_color, ²​skin_color, ³​eye_color, ⁴​birth_year, ⁵​homeworld

_at()

Mode <- function(x){
  y <- names(which.max(table(x)))
  return(y)
}
starwars |> 
  mutate_at(vars(ends_with('color')),Mode) |> 
  select(ends_with('color'))

# A tibble: 87 × 3
   hair_color skin_color eye_color
   <chr>      <chr>      <chr>    
 1 none       fair       brown    
 2 none       fair       brown    
 3 none       fair       brown    
 4 none       fair       brown    
 5 none       fair       brown    
 6 none       fair       brown    
 7 none       fair       brown    
 8 none       fair       brown    
 9 none       fair       brown    
10 none       fair       brown    
# … with 77 more rows

starwars |> 
  mutate(across(ends_with('color'),Mode)) |> 
  select(ends_with('color'))

# A tibble: 87 × 3
   hair_color skin_color eye_color
   <chr>      <chr>      <chr>    
 1 none       fair       brown    
 2 none       fair       brown    
 3 none       fair       brown    
 4 none       fair       brown    
 5 none       fair       brown    
 6 none       fair       brown    
 7 none       fair       brown    
 8 none       fair       brown    
 9 none       fair       brown    
10 none       fair       brown    
# … with 77 more rows
…
