Rchemist - tidyr로 Pivoting하기
…
1) 열 이름에 문자 포함된 경우

pivot_longer() 는 데이터 내의 행의 수를 늘리고, 열의 개수를 줄임으로서 데이터를 길게 만듭니다. 즉 여러 개의 열을 줄여 행으로 바꾸는 과정에서 자연스럽게 데이터의 형태가 길어지는 것을 의미합니다.

relig_income 은 tidyr 패키지에 포함되어 있는 데이터셋으로, 사람들의 종교와 연소득 데이터가 들어있습니다.

pivot_longer() 간단한 예시를 살펴보겠습니다.

relig_income |> 
  pivot_longer(!religion,
               names_to="income",
               values_to = "values")

# A tibble: 180 × 3
   religion income             values
   <chr>    <chr>               <dbl>
 1 Agnostic <$10k                  27
 2 Agnostic $10-20k                34
 3 Agnostic $20-30k                60
 4 Agnostic $30-40k                81
 5 Agnostic $40-50k                76
 6 Agnostic $50-75k               137
 7 Agnostic $75-100k              122
 8 Agnostic $100-150k             109
 9 Agnostic >150k                  84
10 Agnostic Don't know/refused     96
# … with 170 more rows
…
2) 열 이름에 숫자가 포함된 경우

다음으로 billboard 데이터로 pivot_longer를 진행해보겠습니다. billboard 데이터에는 2000년도의 빌보드 순위 주(week) 단위로 들어있습니다.

이 데이터를 길게 바꾸면 다음과 같습니다.

billboard |> 
  pivot_longer(
    cols=starts_with('wk'),
    names_to='week',
    values_to='rank',
    values_drop_na = T
  )

# A tibble: 5,307 × 5
   artist  track                   date.entered week   rank
   <chr>   <chr>                   <date>       <chr> <dbl>
 1 2 Pac   Baby Don't Cry (Keep... 2000-02-26   wk1      87
 2 2 Pac   Baby Don't Cry (Keep... 2000-02-26   wk2      82
 3 2 Pac   Baby Don't Cry (Keep... 2000-02-26   wk3      72
 4 2 Pac   Baby Don't Cry (Keep... 2000-02-26   wk4      77
 5 2 Pac   Baby Don't Cry (Keep... 2000-02-26   wk5      87
 6 2 Pac   Baby Don't Cry (Keep... 2000-02-26   wk6      94
 7 2 Pac   Baby Don't Cry (Keep... 2000-02-26   wk7      99
 8 2Ge+her The Hardest Part Of ... 2000-09-02   wk1      91
 9 2Ge+her The Hardest Part Of ... 2000-09-02   wk2      87
10 2Ge+her The Hardest Part Of ... 2000-09-02   wk3      92
# … with 5,297 more rows
…
이럴 때, names_prefix 인자를 통해 wk 접두사(prefix)를 없애주도록 하겠습니다.

이 때, names_prefix가 추가되어도, week 의 데이터 유형은 그대로 character입니다. week를 숫자형태로 변환해주려면 names_transform을 이용하면 됩니다.

billboard |> 
  pivot_longer(
    cols=starts_with('wk'),
    names_to='week',
    names_prefix = 'wk',
    names_transform = as.integer,
    values_to='rank',
    values_drop_na = T
  )

# A tibble: 5,307 × 5
   artist  track                   date.entered  week  rank
   <chr>   <chr>                   <date>       <int> <dbl>
 1 2 Pac   Baby Don't Cry (Keep... 2000-02-26       1    87
 2 2 Pac   Baby Don't Cry (Keep... 2000-02-26       2    82
 3 2 Pac   Baby Don't Cry (Keep... 2000-02-26       3    72
 4 2 Pac   Baby Don't Cry (Keep... 2000-02-26       4    77
 5 2 Pac   Baby Don't Cry (Keep... 2000-02-26       5    87
 6 2 Pac   Baby Don't Cry (Keep... 2000-02-26       6    94
 7 2 Pac   Baby Don't Cry (Keep... 2000-02-26       7    99
 8 2Ge+her The Hardest Part Of ... 2000-09-02       1    91
 9 2Ge+her The Hardest Part Of ... 2000-09-02       2    87
10 2Ge+her The Hardest Part Of ... 2000-09-02       3    92
# … with 5,297 more rows
…
m / f: 성별

014 / 1524 / 1524 / 3544 / 4554 / 65 : 나이 범위

이 값들은 규칙을 띈 채로 열 이름으로 되어있기 때문에, name_pattern을 이용해 열 이름에서 추출할 수 있습니다.

who |> 
  pivot_longer(
    cols=new_sp_m014:newrel_f65,
    names_to= c('diagnosis','gender','age'),
    names_pattern = "new_?(.*)_(.)(.*)", # 정규표현식
    values_to="count"
  )

# A tibble: 405,440 × 8
   country     iso2  iso3   year diagnosis gender age   count
   <chr>       <chr> <chr> <int> <chr>     <chr>  <chr> <int>
 1 Afghanistan AF    AFG    1980 sp        m      014      NA
 2 Afghanistan AF    AFG    1980 sp        m      1524     NA
 3 Afghanistan AF    AFG    1980 sp        m      2534     NA
 4 Afghanistan AF    AFG    1980 sp        m      3544     NA
 5 Afghanistan AF    AFG    1980 sp        m      4554     NA
 6 Afghanistan AF    AFG    1980 sp        m      5564     NA
 7 Afghanistan AF    AFG    1980 sp        m      65       NA
 8 Afghanistan AF    AFG    1980 sp        f      014      NA
 9 Afghanistan AF    AFG    1980 sp        f      1524     NA
10 Afghanistan AF    AFG    1980 sp        f      2534     NA
# … with 405,430 more rows
…
