Rchemist - dplyr 기초 문법 이해하기
…
        February 1, 2023

dplyr 패키지는 데이터를 다루는 패키지 중 하나로, 아래의 작업을 빠르고 쉽게 도와줄 수 있습니다.

데이터를 다루는 흐름을 그대로 코드에 나타냄으로써, 분석 흐름을 이해하기 쉽습니다.

단순한 영어 동사로 이루어진 함수들을 제공하여, 작성하는 코드를 이해하기 쉽습니다.

dplyr 패키지에 대해 설명하기 위해 starwars 데이터를 사용하도록 하겠습니다. 자세한 사항은 ?starwars 를 통해 확인할 수 있습니다.

library(dplyr)

starwars

# A tibble: 87 × 14
   name        height  mass hair_…¹ skin_…² eye_c…³ birth…⁴ sex   gender homew…⁵
   <chr>        <int> <dbl> <chr>   <chr>   <chr>     <dbl> <chr> <chr>  <chr>  
 1 Luke Skywa…    172    77 blond   fair    blue       19   male  mascu… Tatooi…
 2 C-3PO          167    75 <NA>    gold    yellow    112   none  mascu… Tatooi…
 3 R2-D2           96    32 <NA>    white,… red        33   none  mascu… Naboo  
 4 Darth Vader    202   136 none    white   yellow     41.9 male  mascu… Tatooi…
 5 Leia Organa    150    49 brown   light   brown      19   fema… femin… Aldera…
 6 Owen Lars      178   120 brown,… light   blue       52   male  mascu… Tatooi…
 7 Beru White…    165    75 brown   light   blue       47   fema… femin… Tatooi…
 8 R5-D4           97    32 <NA>    white,… red        NA   none  mascu… Tatooi…
 9 Biggs Dark…    183    84 black   light   brown      24   male  mascu… Tatooi…
10 Obi-Wan Ke…    182    77 auburn… fair    blue-g…    57   male  mascu… Stewjon
# … with 77 more rows, 4 more variables: species <chr>, films <list>,
#   vehicles <list>, starships <list>, and abbreviated variable names
#   ¹​hair_color, ²​skin_color, ³​eye_color, ⁴​birth_year, ⁵​homeworld
…
4. arrange(): 행 순서 정렬하기

arrange()는 filter()와 동일하게 행을 다루는 함수입니다. 다만 arrange()는 다루는 데이터의 행을 재정렬합니다.

만약 두 가지 이상의 열 이름을 제공하는 경우, 첫 번째 열에서 같은 값이 나왔을 때, 추가적으로 행을 정렬하는 기준이 정해지게 됩니다.

starwars |> arrange(height, mass)

# A tibble: 87 × 14
   name        height  mass hair_…¹ skin_…² eye_c…³ birth…⁴ sex   gender homew…⁵
   <chr>        <int> <dbl> <chr>   <chr>   <chr>     <dbl> <chr> <chr>  <chr>  
 1 Yoda            66    17 white   green   brown       896 male  mascu… <NA>   
 2 Ratts Tyer…     79    15 none    grey, … unknown      NA male  mascu… Aleen …
 3 Wicket Sys…     88    20 brown   brown   brown         8 male  mascu… Endor  
 4 Dud Bolt        94    45 none    blue, … yellow       NA male  mascu… Vulpter
 5 R2-D2           96    32 <NA>    white,… red          33 none  mascu… Naboo  
 6 R4-P17          96    NA none    silver… red, b…      NA none  femin… <NA>   
 7 R5-D4           97    32 <NA>    white,… red          NA none  mascu… Tatooi…
 8 Sebulba        112    40 none    grey, … orange       NA male  mascu… Malast…
 9 Gasgano        122    NA none    white,… black        NA male  mascu… Troiken
10 Watto          137    NA black   blue, … yellow       NA male  mascu… Toydar…
# … with 77 more rows, 4 more variables: species <chr>, films <list>,
#   vehicles <list>, starships <list>, and abbreviated variable names
#   ¹​hair_color, ²​skin_color, ³​eye_color, ⁴​birth_year, ⁵​homeworld

height를 기준으로 오름차순이 되었고, height가 같은 경우에는 mass가 작은 값부터 오게끔 정렬되었습니다.

만약 내림차순으로 데이터를 정렬하고 싶은 경우는 desc() 를 함께 사용하면 됩니다.

starwars |> arrange(desc(height))

# A tibble: 87 × 14
   name        height  mass hair_…¹ skin_…² eye_c…³ birth…⁴ sex   gender homew…⁵
   <chr>        <int> <dbl> <chr>   <chr>   <chr>     <dbl> <chr> <chr>  <chr>  
 1 Yarael Poof    264    NA none    white   yellow     NA   male  mascu… Quermia
 2 Tarfful        234   136 brown   brown   blue       NA   male  mascu… Kashyy…
 3 Lama Su        229    88 none    grey    black      NA   male  mascu… Kamino 
 4 Chewbacca      228   112 brown   unknown blue      200   male  mascu… Kashyy…
 5 Roos Tarpa…    224    82 none    grey    orange     NA   male  mascu… Naboo  
 6 Grievous       216   159 none    brown,… green,…    NA   male  mascu… Kalee  
 7 Taun We        213    NA none    grey    black      NA   fema… femin… Kamino 
 8 Rugor Nass     206    NA none    green   orange     NA   male  mascu… Naboo  
 9 Tion Medon     206    80 none    grey    black      NA   male  mascu… Utapau 
10 Darth Vader    202   136 none    white   yellow     41.9 male  mascu… Tatooi…
# … with 77 more rows, 4 more variables: species <chr>, films <list>,
#   vehicles <list>, starships <list>, and abbreviated variable names
#   ¹​hair_color, ²​skin_color, ³​eye_color, ⁴​birth_year, ⁵​homeworld
…
6. select(): 열 선택하기

큰 데이터를 다루게 될 경우, 많은 열이 존재하기 마련입니다. 이 중 분석하고자 하는 일부의 열만 선택할 수 있도록 도와주는 함수가 바로 select()입니다.

starwars |> select(hair_color, skin_color, eye_color)

# A tibble: 87 × 3
   hair_color    skin_color  eye_color
   <chr>         <chr>       <chr>    
 1 blond         fair        blue     
 2 <NA>          gold        yellow   
 3 <NA>          white, blue red      
 4 none          white       yellow   
 5 brown         light       brown    
 6 brown, grey   light       blue     
 7 brown         light       blue     
 8 <NA>          white, red  red      
 9 black         light       brown    
10 auburn, white fair        blue-gray
# … with 77 more rows

만약 열들이 붙어 있다면 :을 이용해 한번에 출력할 수도 있습니다.

starwars |> select(hair_color:eye_color)

# A tibble: 87 × 3
   hair_color    skin_color  eye_color
   <chr>         <chr>       <chr>    
 1 blond         fair        blue     
 2 <NA>          gold        yellow   
 3 <NA>          white, blue red      
 4 none          white       yellow   
 5 brown         light       brown    
 6 brown, grey   light       blue     
 7 brown         light       blue     
 8 <NA>          white, red  red      
 9 black         light       brown    
10 auburn, white fair        blue-gray
# … with 77 more rows

또한 select() 안에서 열 이름이 갖는 규칙을 활용하여, 특정 규칙만을 갖는 열만 선택할 수 있습니다.

starts_with() : 특정한 값으로 시작하는 열 이름 찾기

starwars |> select(starts_with('hair'))

# A tibble: 87 × 1
   hair_color   
   <chr>        
 1 blond        
 2 <NA>         
 3 <NA>         
 4 none         
 5 brown        
 6 brown, grey  
 7 brown        
 8 <NA>         
 9 black        
10 auburn, white
# … with 77 more rows

ends_with() : 특정한 값으로 끝나는 열 이름 찾기

starwars |> select(ends_with('hair'))

# A tibble: 87 × 0

matches() : 정규표현식을 통한 열 이름 찾기

starwars |> select(matches('^[a-z]{4}_'))

# A tibble: 87 × 2
   hair_color    skin_color 
   <chr>         <chr>      
 1 blond         fair       
 2 <NA>          gold       
 3 <NA>          white, blue
 4 none          white      
 5 brown         light      
 6 brown, grey   light      
 7 brown         light      
 8 <NA>          white, red 
 9 black         light      
10 auburn, white fair       
# … with 77 more rows

contains() :특정한 문자가 포함된 열 이름 찾기

starwars |> select(contains('_'))

# A tibble: 87 × 4
   hair_color    skin_color  eye_color birth_year
   <chr>         <chr>       <chr>          <dbl>
 1 blond         fair        blue            19  
 2 <NA>          gold        yellow         112  
 3 <NA>          white, blue red             33  
 4 none          white       yellow          41.9
 5 brown         light       brown           19  
 6 brown, grey   light       blue            52  
 7 brown         light       blue            47  
 8 <NA>          white, red  red             NA  
 9 black         light       brown           24  
10 auburn, white fair        blue-gray       57  
# … with 77 more rows

num_range() : 특정 숫자범위를 갖는 열 이름 찾기

num_range() 함수를 설명하기 위해 tidyr 패키지에 있는 billboard 데이터를 사용하겠습니다.

library(tidyr)
billboard |> select(num_range('wk',1:10))

# A tibble: 317 × 10
     wk1   wk2   wk3   wk4   wk5   wk6   wk7   wk8   wk9  wk10
   <dbl> <dbl> <dbl> <dbl> <dbl> <dbl> <dbl> <dbl> <dbl> <dbl>
 1    87    82    72    77    87    94    99    NA    NA    NA
 2    91    87    92    NA    NA    NA    NA    NA    NA    NA
 3    81    70    68    67    66    57    54    53    51    51
 4    76    76    72    69    67    65    55    59    62    61
 5    57    34    25    17    17    31    36    49    53    57
 6    51    39    34    26    26    19     2     2     3     6
 7    97    97    96    95   100    NA    NA    NA    NA    NA
 8    84    62    51    41    38    35    35    38    38    36
 9    59    53    38    28    21    18    16    14    12    10
10    76    76    74    69    68    67    61    58    57    59
# … with 307 more rows

7. rename(): 열 이름 변경

select()문을 이용해 원하는 이름으로 열을 출력할 수도 있습니다.

starwars |> select(home_world=homeworld)

# A tibble: 87 × 1
   home_world
   <chr>     
 1 Tatooine  
 2 Tatooine  
 3 Naboo     
 4 Tatooine  
 5 Alderaan  
 6 Tatooine  
 7 Tatooine  
 8 Tatooine  
 9 Tatooine  
10 Stewjon   
# … with 77 more rows

그러나 select()는 선택된 열 이외에 다른 열들은 모두 버리기 때문에, rename()을 이용해 열 이름을 변경해줄 수 있습니다.

# rename(new = old)
starwars |> rename(home_world = homeworld)

# A tibble: 87 × 14
   name        height  mass hair_…¹ skin_…² eye_c…³ birth…⁴ sex   gender home_…⁵
   <chr>        <int> <dbl> <chr>   <chr>   <chr>     <dbl> <chr> <chr>  <chr>  
 1 Luke Skywa…    172    77 blond   fair    blue       19   male  mascu… Tatooi…
 2 C-3PO          167    75 <NA>    gold    yellow    112   none  mascu… Tatooi…
 3 R2-D2           96    32 <NA>    white,… red        33   none  mascu… Naboo  
 4 Darth Vader    202   136 none    white   yellow     41.9 male  mascu… Tatooi…
 5 Leia Organa    150    49 brown   light   brown      19   fema… femin… Aldera…
 6 Owen Lars      178   120 brown,… light   blue       52   male  mascu… Tatooi…
 7 Beru White…    165    75 brown   light   blue       47   fema… femin… Tatooi…
 8 R5-D4           97    32 <NA>    white,… red        NA   none  mascu… Tatooi…
 9 Biggs Dark…    183    84 black   light   brown      24   male  mascu… Tatooi…
10 Obi-Wan Ke…    182    77 auburn… fair    blue-g…    57   male  mascu… Stewjon
# … with 77 more rows, 4 more variables: species <chr>, films <list>,
#   vehicles <list>, starships <list>, and abbreviated variable names
#   ¹​hair_color, ²​skin_color, ³​eye_color, ⁴​birth_year, ⁵​home_world

8. mutate(): 새로운 열 추가하기

starwars |> mutate(height_m = height / 100)

# A tibble: 87 × 15
   name        height  mass hair_…¹ skin_…² eye_c…³ birth…⁴ sex   gender homew…⁵
   <chr>        <int> <dbl> <chr>   <chr>   <chr>     <dbl> <chr> <chr>  <chr>  
 1 Luke Skywa…    172    77 blond   fair    blue       19   male  mascu… Tatooi…
 2 C-3PO          167    75 <NA>    gold    yellow    112   none  mascu… Tatooi…
 3 R2-D2           96    32 <NA>    white,… red        33   none  mascu… Naboo  
 4 Darth Vader    202   136 none    white   yellow     41.9 male  mascu… Tatooi…
 5 Leia Organa    150    49 brown   light   brown      19   fema… femin… Aldera…
 6 Owen Lars      178   120 brown,… light   blue       52   male  mascu… Tatooi…
 7 Beru White…    165    75 brown   light   blue       47   fema… femin… Tatooi…
 8 R5-D4           97    32 <NA>    white,… red        NA   none  mascu… Tatooi…
 9 Biggs Dark…    183    84 black   light   brown      24   male  mascu… Tatooi…
10 Obi-Wan Ke…    182    77 auburn… fair    blue-g…    57   male  mascu… Stewjon
# … with 77 more rows, 5 more variables: species <chr>, films <list>,
#   vehicles <list>, starships <list>, height_m <dbl>, and abbreviated variable
#   names ¹​hair_color, ²​skin_color, ³​eye_color, ⁴​birth_year, ⁵​homeworld

tibble 특성 상 새롭게 만든 열이 바로 보이지 않지만, select()를 이용해 출력할 수 있습니다.

starwars |>
  mutate(height_m = height / 100) %>%
  select(height_m, height, everything())

# A tibble: 87 × 15
   height_m height name        mass hair_…¹ skin_…² eye_c…³ birth…⁴ sex   gender
      <dbl>  <int> <chr>      <dbl> <chr>   <chr>   <chr>     <dbl> <chr> <chr> 
 1     1.72    172 Luke Skyw…    77 blond   fair    blue       19   male  mascu…
 2     1.67    167 C-3PO         75 <NA>    gold    yellow    112   none  mascu…
 3     0.96     96 R2-D2         32 <NA>    white,… red        33   none  mascu…
 4     2.02    202 Darth Vad…   136 none    white   yellow     41.9 male  mascu…
 5     1.5     150 Leia Orga…    49 brown   light   brown      19   fema… femin…
 6     1.78    178 Owen Lars    120 brown,… light   blue       52   male  mascu…
 7     1.65    165 Beru Whit…    75 brown   light   blue       47   fema… femin…
 8     0.97     97 R5-D4         32 <NA>    white,… red        NA   none  mascu…
 9     1.83    183 Biggs Dar…    84 black   light   brown      24   male  mascu…
10     1.82    182 Obi-Wan K…    77 auburn… fair    blue-g…    57   male  mascu…
# … with 77 more rows, 5 more variables: homeworld <chr>, species <chr>,
#   films <list>, vehicles <list>, starships <list>, and abbreviated variable
#   names ¹​hair_color, ²​skin_color, ³​eye_color, ⁴​birth_year

mutate() 안에서 새롭게 만든 열도 접근이 가능합니다.

starwars |> 
  mutate(
    height_m = height / 100,
    BMI = mass / (height_m^2)
  ) %>%
  select(BMI, everything())

# A tibble: 87 × 16
     BMI name  height  mass hair_…¹ skin_…² eye_c…³ birth…⁴ sex   gender homew…⁵
   <dbl> <chr>  <int> <dbl> <chr>   <chr>   <chr>     <dbl> <chr> <chr>  <chr>  
 1  26.0 Luke…    172    77 blond   fair    blue       19   male  mascu… Tatooi…
 2  26.9 C-3PO    167    75 <NA>    gold    yellow    112   none  mascu… Tatooi…
 3  34.7 R2-D2     96    32 <NA>    white,… red        33   none  mascu… Naboo  
 4  33.3 Dart…    202   136 none    white   yellow     41.9 male  mascu… Tatooi…
 5  21.8 Leia…    150    49 brown   light   brown      19   fema… femin… Aldera…
 6  37.9 Owen…    178   120 brown,… light   blue       52   male  mascu… Tatooi…
 7  27.5 Beru…    165    75 brown   light   blue       47   fema… femin… Tatooi…
 8  34.0 R5-D4     97    32 <NA>    white,… red        NA   none  mascu… Tatooi…
 9  25.1 Bigg…    183    84 black   light   brown      24   male  mascu… Tatooi…
10  23.2 Obi-…    182    77 auburn… fair    blue-g…    57   male  mascu… Stewjon
# … with 77 more rows, 5 more variables: species <chr>, films <list>,
#   vehicles <list>, starships <list>, height_m <dbl>, and abbreviated variable
#   names ¹​hair_color, ²​skin_color, ³​eye_color, ⁴​birth_year, ⁵​homeworld

만약 기존의 열은 없애고 새로운 열만 남기고 싶다면, transmute() 를 이용할 수 있습니다.

starwars |>
  transmute(
    height_m = height / 100,
    BMI = mass / (height_m^2)
  )

# A tibble: 87 × 2
   height_m   BMI
      <dbl> <dbl>
 1     1.72  26.0
 2     1.67  26.9
 3     0.96  34.7
 4     2.02  33.3
 5     1.5   21.8
 6     1.78  37.9
 7     1.65  27.5
 8     0.97  34.0
 9     1.83  25.1
10     1.82  23.2
# … with 77 more rows

9. relocate(): 열의 순서 변경

relocate()는 옮길 열들과, 옮길 위치를 지정해주면 됩니다.

# .before or .after
starwars |> relocate(sex:homeworld, # 옮길 열들
                    .before = height # 옮길 위치
                    )

# A tibble: 87 × 14
   name        sex   gender homew…¹ height  mass hair_…² skin_…³ eye_c…⁴ birth…⁵
   <chr>       <chr> <chr>  <chr>    <int> <dbl> <chr>   <chr>   <chr>     <dbl>
 1 Luke Skywa… male  mascu… Tatooi…    172    77 blond   fair    blue       19  
 2 C-3PO       none  mascu… Tatooi…    167    75 <NA>    gold    yellow    112  
 3 R2-D2       none  mascu… Naboo       96    32 <NA>    white,… red        33  
 4 Darth Vader male  mascu… Tatooi…    202   136 none    white   yellow     41.9
 5 Leia Organa fema… femin… Aldera…    150    49 brown   light   brown      19  
 6 Owen Lars   male  mascu… Tatooi…    178   120 brown,… light   blue       52  
 7 Beru White… fema… femin… Tatooi…    165    75 brown   light   blue       47  
 8 R5-D4       none  mascu… Tatooi…     97    32 <NA>    white,… red        NA  
 9 Biggs Dark… male  mascu… Tatooi…    183    84 black   light   brown      24  
10 Obi-Wan Ke… male  mascu… Stewjon    182    77 auburn… fair    blue-g…    57  
# … with 77 more rows, 4 more variables: species <chr>, films <list>,
#   vehicles <list>, starships <list>, and abbreviated variable names
#   ¹​homeworld, ²​hair_color, ³​skin_color, ⁴​eye_color, ⁵​birth_year
…
dplyr와 %>%(또는 |>)를 사용하여 출력했을 때, 출력된 값이 저장되지 않습니다. 즉 분석하는 데이터에는 변경사항이 없습니다. 만약 새로운 열을 추가하거나 이름을 변경할 때, 또는 계산한 값을 저장하기 위해서는 <- 를 이용해 데이터에 저장하거나 새로운 값으로 선언해야 합니다.

starwars2 <- starwars %>%
  group_by(species, sex) %>%
  select(height, mass) %>%
  summarise(
    height = mean(height, na.rm = TRUE),
    mass = mean(mass, na.rm = TRUE)
  )

# starwars2에는 group_by 후 summarise한 값만 존재
starwars2

# A tibble: 41 × 4
# Groups:   species [38]
   species   sex    height  mass
   <chr>     <chr>   <dbl> <dbl>
 1 Aleena    male      79   15  
 2 Besalisk  male     198  102  
 3 Cerean    male     198   82  
 4 Chagrian  male     196  NaN  
 5 Clawdite  female   168   55  
 6 Droid     none     131.  69.8
 7 Dug       male     112   40  
 8 Ewok      male      88   20  
 9 Geonosian male     183   80  
10 Gungan    male     209.  74  
# … with 31 more rows
…
