Rchemist - dplyr group_by
…
group_by() : 그룹별 계산

group_by()는 특정 집단의 범주별로 어떤 값들을 요약하거나 계산할 때 많이 활용되는 함수입니다.

library(dplyr)
starwars %>%
  group_by(species, sex) %>%
  select(height, mass) %>%
  summarise(
    height = mean(height, na.rm = TRUE),
    mass = mean(mass, na.rm = TRUE)
  )

# A tibble: 41 × 4
# Groups:   species [38]
   species   sex    height  mass
   <chr>     <chr>   <dbl> <dbl>
 1 Aleena    male      79   15  
 2 Besalisk  male     198  102  
 3 Cerean    male     198   82  
 4 Chagrian  male     196  NaN  
 5 Clawdite  female   168   55  
 6 Droid     none     131.  69.8
 7 Dug       male     112   40  
 8 Ewok      male      88   20  
 9 Geonosian male     183   80  
10 Gungan    male     209.  74  
# … with 31 more rows

by_species <- starwars |> group_by(species)
by_sex_gender <- starwars |> group_by(sex,gender)

출력했을 때, 데이터가 그룹으로 묶인 것을 알 수 있습니다.

by_species

# A tibble: 87 × 14
# Groups:   species [38]
   name        height  mass hair_…¹ skin_…² eye_c…³ birth…⁴ sex   gender homew…⁵
   <chr>        <int> <dbl> <chr>   <chr>   <chr>     <dbl> <chr> <chr>  <chr>  
 1 Luke Skywa…    172    77 blond   fair    blue       19   male  mascu… Tatooi…
 2 C-3PO          167    75 <NA>    gold    yellow    112   none  mascu… Tatooi…
 3 R2-D2           96    32 <NA>    white,… red        33   none  mascu… Naboo  
 4 Darth Vader    202   136 none    white   yellow     41.9 male  mascu… Tatooi…
 5 Leia Organa    150    49 brown   light   brown      19   fema… femin… Aldera…
 6 Owen Lars      178   120 brown,… light   blue       52   male  mascu… Tatooi…
 7 Beru White…    165    75 brown   light   blue       47   fema… femin… Tatooi…
 8 R5-D4           97    32 <NA>    white,… red        NA   none  mascu… Tatooi…
 9 Biggs Dark…    183    84 black   light   brown      24   male  mascu… Tatooi…
10 Obi-Wan Ke…    182    77 auburn… fair    blue-g…    57   male  mascu… Stewjon
# … with 77 more rows, 4 more variables: species <chr>, films <list>,
#   vehicles <list>, starships <list>, and abbreviated variable names
#   ¹​hair_color, ²​skin_color, ³​eye_color, ⁴​birth_year, ⁵​homeworld

by_sex_gender

# A tibble: 87 × 14
# Groups:   sex, gender [6]
   name        height  mass hair_…¹ skin_…² eye_c…³ birth…⁴ sex   gender homew…⁵
   <chr>        <int> <dbl> <chr>   <chr>   <chr>     <dbl> <chr> <chr>  <chr>  
 1 Luke Skywa…    172    77 blond   fair    blue       19   male  mascu… Tatooi…
 2 C-3PO          167    75 <NA>    gold    yellow    112   none  mascu… Tatooi…
 3 R2-D2           96    32 <NA>    white,… red        33   none  mascu… Naboo  
 4 Darth Vader    202   136 none    white   yellow     41.9 male  mascu… Tatooi…
 5 Leia Organa    150    49 brown   light   brown      19   fema… femin… Aldera…
 6 Owen Lars      178   120 brown,… light   blue       52   male  mascu… Tatooi…
 7 Beru White…    165    75 brown   light   blue       47   fema… femin… Tatooi…
 8 R5-D4           97    32 <NA>    white,… red        NA   none  mascu… Tatooi…
 9 Biggs Dark…    183    84 black   light   brown      24   male  mascu… Tatooi…
10 Obi-Wan Ke…    182    77 auburn… fair    blue-g…    57   male  mascu… Stewjon
# … with 77 more rows, 4 more variables: species <chr>, films <list>,
#   vehicles <list>, starships <list>, and abbreviated variable names
#   ¹​hair_color, ²​skin_color, ³​eye_color, ⁴​birth_year, ⁵​homeworld

tally() 를 이용해 그룹별 n수를 파악할 수도 있습니다.

sort 인자를 통해서 그룹 수가 많은 순서대로 정렬할 수 있습니다.

by_species |> tally()

# A tibble: 38 × 2
   species       n
   <chr>     <int>
 1 Aleena        1
 2 Besalisk      1
 3 Cerean        1
 4 Chagrian      1
 5 Clawdite      1
 6 Droid         6
 7 Dug           1
 8 Ewok          1
 9 Geonosian     1
10 Gungan        3
# … with 28 more rows
…
그룹 변수 정보 확인

그룹 변수를 지정해준 경우, group_keys() 를 통해 그룹 변수의 범주를 확인할 수 있습니다.

by_species |> group_keys()

# A tibble: 38 × 1
   species  
   <chr>    
 1 Aleena   
 2 Besalisk 
 3 Cerean   
 4 Chagrian 
 5 Clawdite 
 6 Droid    
 7 Dug      
 8 Ewok     
 9 Geonosian
10 Gungan   
# … with 28 more rows
그룹 변수의 이름만 확인할 때는 group_vars() 를 사용합니다.

by_sex_gender |> group_vars()

[1] "sex"    "gender"

그룹 변수 변경 및 추가

기존의 그룹처리 되어있는 데이터에 group_by() 를 진행할 시, 새로운 그룹 변수로 덮어씌워집니다.

by_species |> 
  group_by(homeworld) |> 
  tally()

# A tibble: 49 × 2
   homeworld          n
   <chr>          <int>
 1 Alderaan           3
 2 Aleen Minor        1
 3 Bespin             1
 4 Bestine IV         1
 5 Cato Neimoidia     1
 6 Cerea              1
 7 Champala           1
 8 Chandrila          1
 9 Concord Dawn       1
10 Corellia           2
# … with 39 more rows

.add=T 인자를 추가할 경우, 새로운 그룹 변수를 추가할 수도 있습니다.

by_species |> 
  group_by(homeworld, .add=T) |> 
  tally()

# A tibble: 58 × 3
# Groups:   species [38]
   species  homeworld       n
   <chr>    <chr>       <int>
 1 Aleena   Aleen Minor     1
 2 Besalisk Ojom            1
 3 Cerean   Cerea           1
 4 Chagrian Champala        1
 5 Clawdite Zolan           1
 6 Droid    Naboo           1
 7 Droid    Tatooine        2
 8 Droid    <NA>            3
 9 Dug      Malastare       1
10 Ewok     Endor           1
# … with 48 more rows
…
group_by()와 함께 쓰는 동사

1. summarise()

summarise()와 group_by()가 함께 사용될 경우, 그룹별로 요약 계산을 수행합니다.

by_species |> 
  summarise(
    n=n(),
    mean_height = mean(height,na.rm=T)
  )

# A tibble: 38 × 3
   species       n mean_height
   <chr>     <int>       <dbl>
 1 Aleena        1         79 
 2 Besalisk      1        198 
 3 Cerean        1        198 
 4 Chagrian      1        196 
 5 Clawdite      1        168 
 6 Droid         6        131.
 7 Dug           1        112 
 8 Ewok          1         88 
 9 Geonosian     1        183 
10 Gungan        3        209.
# … with 28 more rows
…
2. select(), rename(), relocate()

rename()과 relocate()는 group_by()와 관계없이 동일한 작업을 수행합니다. 각각 열의 이름과 위치에만 영향을 미치게 때문입니다.

select()가 group_by()와 함께 쓰이면 그룹 변수가 항상 함께 선택됩니다.

by_species |> select(mass)

# A tibble: 87 × 2
# Groups:   species [38]
   species  mass
   <chr>   <dbl>
 1 Human      77
 2 Droid      75
 3 Droid      32
 4 Human     136
 5 Human      49
 6 Human     120
 7 Human      75
 8 Droid      32
 9 Human      84
10 Human      77
# … with 77 more rows

그룹 변수가 함께 선택되는 것을 원치 않는다면 ungroup()을 먼저 사용해야 합니다.

by_species |> ungroup() |> select(mass)

# A tibble: 87 × 1
    mass
   <dbl>
 1    77
 2    75
 3    32
 4   136
 5    49
 6   120
 7    75
 8    32
 9    84
10    77
# … with 77 more rows

3. arrange()

arrange()가 group_by()와 함께 쓰일 경우, 그냥 사용하게 되면 group_by() 가 없을 때와 동일합니다. 그러나 .by_group=T 인자를 통해 그룹 변수를 기준으로 정렬되어 결과가 출력됩니다.

by_species |> 
  arrange(desc(mass)) |> 
  relocate(species, mass)

# A tibble: 87 × 14
# Groups:   species [38]
   species     mass name     height hair_…¹ skin_…² eye_c…³ birth…⁴ sex   gender
   <chr>      <dbl> <chr>     <int> <chr>   <chr>   <chr>     <dbl> <chr> <chr> 
 1 Hutt        1358 Jabba D…    175 <NA>    green-… orange    600   herm… mascu…
 2 Kaleesh      159 Grievous    216 none    brown,… green,…    NA   male  mascu…
 3 Droid        140 IG-88       200 none    metal   red        15   none  mascu…
 4 Human        136 Darth V…    202 none    white   yellow     41.9 male  mascu…
 5 Wookiee      136 Tarfful     234 brown   brown   blue       NA   male  mascu…
 6 Human        120 Owen La…    178 brown,… light   blue       52   male  mascu…
 7 Trandoshan   113 Bossk       190 none    green   red        53   male  mascu…
 8 Wookiee      112 Chewbac…    228 brown   unknown blue      200   male  mascu…
 9 Human        110 Jek Ton…    180 brown   fair    blue       NA   male  mascu…
10 Besalisk     102 Dexter …    198 none    brown   yellow     NA   male  mascu…
# … with 77 more rows, 4 more variables: homeworld <chr>, films <list>,
#   vehicles <list>, starships <list>, and abbreviated variable names
#   ¹​hair_color, ²​skin_color, ³​eye_color, ⁴​birth_year

by_species |> 
  arrange(desc(mass), .by_group = T) |> 
  relocate(species, mass)

# A tibble: 87 × 14
# Groups:   species [38]
   species   mass name       height hair_…¹ skin_…² eye_c…³ birth…⁴ sex   gender
   <chr>    <dbl> <chr>       <int> <chr>   <chr>   <chr>     <dbl> <chr> <chr> 
 1 Aleena      15 Ratts Tye…     79 none    grey, … unknown      NA male  mascu…
 2 Besalisk   102 Dexter Je…    198 none    brown   yellow       NA male  mascu…
 3 Cerean      82 Ki-Adi-Mu…    198 white   pale    yellow       92 male  mascu…
 4 Chagrian    NA Mas Amedda    196 none    blue    blue         NA male  mascu…
 5 Clawdite    55 Zam Wesell    168 blonde  fair, … yellow       NA fema… femin…
 6 Droid      140 IG-88         200 none    metal   red          15 none  mascu…
 7 Droid       75 C-3PO         167 <NA>    gold    yellow      112 none  mascu…
 8 Droid       32 R2-D2          96 <NA>    white,… red          33 none  mascu…
 9 Droid       32 R5-D4          97 <NA>    white,… red          NA none  mascu…
10 Droid       NA R4-P17         96 none    silver… red, b…      NA none  femin…
# … with 77 more rows, 4 more variables: homeworld <chr>, films <list>,
#   vehicles <list>, starships <list>, and abbreviated variable names
#   ¹​hair_color, ²​skin_color, ³​eye_color, ⁴​birth_year
…
6. slice()

slice()와 slice() 계열 함수들이 group_by() 와 함께 사용될 경우, 그룹별로 해당되는 값이 출력됩니다.

# 그룹별 첫번째 값 
by_species |> 
  slice(1) 

# A tibble: 38 × 14
# Groups:   species [38]
   name        height  mass hair_…¹ skin_…² eye_c…³ birth…⁴ sex   gender homew…⁵
   <chr>        <int> <dbl> <chr>   <chr>   <chr>     <dbl> <chr> <chr>  <chr>  
 1 Ratts Tyer…     79    15 none    grey, … unknown      NA male  mascu… Aleen …
 2 Dexter Jet…    198   102 none    brown   yellow       NA male  mascu… Ojom   
 3 Ki-Adi-Mun…    198    82 white   pale    yellow       92 male  mascu… Cerea  
 4 Mas Amedda     196    NA none    blue    blue         NA male  mascu… Champa…
 5 Zam Wesell     168    55 blonde  fair, … yellow       NA fema… femin… Zolan  
 6 C-3PO          167    75 <NA>    gold    yellow      112 none  mascu… Tatooi…
 7 Sebulba        112    40 none    grey, … orange       NA male  mascu… Malast…
 8 Wicket Sys…     88    20 brown   brown   brown         8 male  mascu… Endor  
 9 Poggle the…    183    80 none    green   yellow       NA male  mascu… Geonos…
10 Jar Jar Bi…    196    66 none    orange  orange       52 male  mascu… Naboo  
# … with 28 more rows, 4 more variables: species <chr>, films <list>,
#   vehicles <list>, starships <list>, and abbreviated variable names
#   ¹​hair_color, ²​skin_color, ³​eye_color, ⁴​birth_year, ⁵​homeworld

by_species |>
  filter(!is.na(height)) |> 
  slice_min(height,n=2)

# A tibble: 48 × 14
# Groups:   species [38]
   name        height  mass hair_…¹ skin_…² eye_c…³ birth…⁴ sex   gender homew…⁵
   <chr>        <int> <dbl> <chr>   <chr>   <chr>     <dbl> <chr> <chr>  <chr>  
 1 Ratts Tyer…     79    15 none    grey, … unknown      NA male  mascu… Aleen …
 2 Dexter Jet…    198   102 none    brown   yellow       NA male  mascu… Ojom   
 3 Ki-Adi-Mun…    198    82 white   pale    yellow       92 male  mascu… Cerea  
 4 Mas Amedda     196    NA none    blue    blue         NA male  mascu… Champa…
 5 Zam Wesell     168    55 blonde  fair, … yellow       NA fema… femin… Zolan  
 6 R2-D2           96    32 <NA>    white,… red          33 none  mascu… Naboo  
 7 R4-P17          96    NA none    silver… red, b…      NA none  femin… <NA>   
 8 Sebulba        112    40 none    grey, … orange       NA male  mascu… Malast…
 9 Wicket Sys…     88    20 brown   brown   brown         8 male  mascu… Endor  
10 Poggle the…    183    80 none    green   yellow       NA male  mascu… Geonos…
# … with 38 more rows, 4 more variables: species <chr>, films <list>,
#   vehicles <list>, starships <list>, and abbreviated variable names
#   ¹​hair_color, ²​skin_color, ³​eye_color, ⁴​birth_year, ⁵​homeworld
…
